%YAML 1.1
%TAG !u! tag:unity3d.com,2011:
--- !u!1 &1883455258204122952
GameObject:
  m_ObjectHideFlags: 0
  m_CorrespondingSourceObject: {fileID: 0}
  m_PrefabInstance: {fileID: 0}
  m_PrefabAsset: {fileID: 0}
  serializedVersion: 6
  m_Component:
  - component: {fileID: 8601293596179401828}
  - component: {fileID: 4628401977559017267}
  - component: {fileID: 2174274667022340679}
  m_Layer: 31
  m_Name: Layer1
  m_TagString: Untagged
  m_Icon: {fileID: 0}
  m_NavMeshLayer: 0
  m_StaticEditorFlags: 0
  m_IsActive: 1
--- !u!4 &8601293596179401828
Transform:
  m_ObjectHideFlags: 0
  m_CorrespondingSourceObject: {fileID: 0}
  m_PrefabInstance: {fileID: 0}
  m_PrefabAsset: {fileID: 0}
  m_GameObject: {fileID: 1883455258204122952}
  m_LocalRotation: {x: -0, y: -0, z: -0, w: 1}
  m_LocalPosition: {x: 0, y: 0, z: 0}
  m_LocalScale: {x: 1, y: 1, z: 1}
  m_Children: []
  m_Father: {fileID: 9113952671365348219}
  m_RootOrder: 0
  m_LocalEulerAnglesHint: {x: 0, y: 0, z: 0}
--- !u!1839735485 &4628401977559017267
Tilemap:
  m_ObjectHideFlags: 0
  m_CorrespondingSourceObject: {fileID: 0}
  m_PrefabInstance: {fileID: 0}
  m_PrefabAsset: {fileID: 0}
  m_GameObject: {fileID: 1883455258204122952}
  m_Enabled: 1
  m_Tiles:
  - first: {x: 6, y: -12, z: 0}
    second:
      serializedVersion: 2
      m_TileIndex: 78
      m_TileSpriteIndex: 101
      m_TileMatrixIndex: 0
      m_TileColorIndex: 0
      m_TileObjectToInstantiateIndex: 65535
      m_AllTileFlags: 1073741825
  - first: {x: 7, y: -12, z: 0}
    second:
      serializedVersion: 2
      m_TileIndex: 79
      m_TileSpriteIndex: 100
      m_TileMatrixIndex: 0
      m_TileColorIndex: 0
      m_TileObjectToInstantiateIndex: 65535
      m_AllTileFlags: 1073741825
  - first: {x: 9, y: -12, z: 0}
    second:
      serializedVersion: 2
      m_TileIndex: 80
      m_TileSpriteIndex: 99
      m_TileMatrixIndex: 0
      m_TileColorIndex: 0
      m_TileObjectToInstantiateIndex: 65535
      m_AllTileFlags: 1073741825
  - first: {x: 10, y: -12, z: 0}
    second:
      serializedVersion: 2
      m_TileIndex: 81
      m_TileSpriteIndex: 98
      m_TileMatrixIndex: 0
      m_TileColorIndex: 0
      m_TileObjectToInstantiateIndex: 65535
      m_AllTileFlags: 1073741825
  - first: {x: 12, y: -12, z: 0}
    second:
      serializedVersion: 2
      m_TileIndex: 82
      m_TileSpriteIndex: 97
      m_TileMatrixIndex: 0
      m_TileColorIndex: 0
      m_TileObjectToInstantiateIndex: 65535
      m_AllTileFlags: 1073741825
  - first: {x: 6, y: -11, z: 0}
    second:
      serializedVersion: 2
      m_TileIndex: 74
      m_TileSpriteIndex: 96
      m_TileMatrixIndex: 0
      m_TileColorIndex: 0
      m_TileObjectToInstantiateIndex: 65535
      m_AllTileFlags: 1073741825
  - first: {x: 7, y: -11, z: 0}
    second:
      serializedVersion: 2
      m_TileIndex: 75
      m_TileSpriteIndex: 95
      m_TileMatrixIndex: 0
      m_TileColorIndex: 0
      m_TileObjectToInstantiateIndex: 65535
      m_AllTileFlags: 1073741825
  - first: {x: 10, y: -11, z: 0}
    second:
      serializedVersion: 2
      m_TileIndex: 76
      m_TileSpriteIndex: 94
      m_TileMatrixIndex: 0
      m_TileColorIndex: 0
      m_TileObjectToInstantiateIndex: 65535
      m_AllTileFlags: 1073741825
  - first: {x: 12, y: -11, z: 0}
    second:
      serializedVersion: 2
      m_TileIndex: 77
      m_TileSpriteIndex: 93
      m_TileMatrixIndex: 0
      m_TileColorIndex: 0
      m_TileObjectToInstantiateIndex: 65535
      m_AllTileFlags: 1073741825
  - first: {x: 6, y: -10, z: 0}
    second:
      serializedVersion: 2
      m_TileIndex: 69
      m_TileSpriteIndex: 92
      m_TileMatrixIndex: 0
      m_TileColorIndex: 0
      m_TileObjectToInstantiateIndex: 65535
      m_AllTileFlags: 1073741825
  - first: {x: 7, y: -10, z: 0}
    second:
      serializedVersion: 2
      m_TileIndex: 70
      m_TileSpriteIndex: 91
      m_TileMatrixIndex: 0
      m_TileColorIndex: 0
      m_TileObjectToInstantiateIndex: 65535
      m_AllTileFlags: 1073741825
  - first: {x: 9, y: -10, z: 0}
    second:
      serializedVersion: 2
      m_TileIndex: 71
      m_TileSpriteIndex: 90
      m_TileMatrixIndex: 0
      m_TileColorIndex: 0
      m_TileObjectToInstantiateIndex: 65535
      m_AllTileFlags: 1073741825
  - first: {x: 10, y: -10, z: 0}
    second:
      serializedVersion: 2
      m_TileIndex: 72
      m_TileSpriteIndex: 89
      m_TileMatrixIndex: 0
      m_TileColorIndex: 0
      m_TileObjectToInstantiateIndex: 65535
      m_AllTileFlags: 1073741825
  - first: {x: 12, y: -10, z: 0}
    second:
      serializedVersion: 2
      m_TileIndex: 73
      m_TileSpriteIndex: 88
      m_TileMatrixIndex: 0
      m_TileColorIndex: 0
      m_TileObjectToInstantiateIndex: 65535
      m_AllTileFlags: 1073741825
  - first: {x: 10, y: -9, z: 0}
    second:
      serializedVersion: 2
      m_TileIndex: 67
      m_TileSpriteIndex: 87
      m_TileMatrixIndex: 0
      m_TileColorIndex: 0
      m_TileObjectToInstantiateIndex: 65535
      m_AllTileFlags: 1073741825
  - first: {x: 12, y: -9, z: 0}
    second:
      serializedVersion: 2
      m_TileIndex: 68
      m_TileSpriteIndex: 86
      m_TileMatrixIndex: 0
      m_TileColorIndex: 0
      m_TileObjectToInstantiateIndex: 65535
      m_AllTileFlags: 1073741825
  - first: {x: 6, y: -8, z: 0}
    second:
      serializedVersion: 2
      m_TileIndex: 60
      m_TileSpriteIndex: 85
      m_TileMatrixIndex: 0
      m_TileColorIndex: 0
      m_TileObjectToInstantiateIndex: 65535
      m_AllTileFlags: 1073741825
  - first: {x: 7, y: -8, z: 0}
    second:
      serializedVersion: 2
      m_TileIndex: 61
      m_TileSpriteIndex: 84
      m_TileMatrixIndex: 0
      m_TileColorIndex: 0
      m_TileObjectToInstantiateIndex: 65535
      m_AllTileFlags: 1073741825
  - first: {x: 8, y: -8, z: 0}
    second:
      serializedVersion: 2
      m_TileIndex: 62
      m_TileSpriteIndex: 83
      m_TileMatrixIndex: 0
      m_TileColorIndex: 0
      m_TileObjectToInstantiateIndex: 65535
      m_AllTileFlags: 1073741825
  - first: {x: 9, y: -8, z: 0}
    second:
      serializedVersion: 2
      m_TileIndex: 63
      m_TileSpriteIndex: 82
      m_TileMatrixIndex: 0
      m_TileColorIndex: 0
      m_TileObjectToInstantiateIndex: 65535
      m_AllTileFlags: 1073741825
  - first: {x: 10, y: -8, z: 0}
    second:
      serializedVersion: 2
      m_TileIndex: 64
      m_TileSpriteIndex: 81
      m_TileMatrixIndex: 0
      m_TileColorIndex: 0
      m_TileObjectToInstantiateIndex: 65535
      m_AllTileFlags: 1073741825
  - first: {x: 11, y: -8, z: 0}
    second:
      serializedVersion: 2
      m_TileIndex: 65
      m_TileSpriteIndex: 80
      m_TileMatrixIndex: 0
      m_TileColorIndex: 0
      m_TileObjectToInstantiateIndex: 65535
      m_AllTileFlags: 1073741825
  - first: {x: 12, y: -8, z: 0}
    second:
      serializedVersion: 2
      m_TileIndex: 66
      m_TileSpriteIndex: 79
      m_TileMatrixIndex: 0
      m_TileColorIndex: 0
      m_TileObjectToInstantiateIndex: 65535
      m_AllTileFlags: 1073741825
  - first: {x: 2, y: -7, z: 0}
    second:
      serializedVersion: 2
      m_TileIndex: 39
      m_TileSpriteIndex: 78
      m_TileMatrixIndex: 0
      m_TileColorIndex: 0
      m_TileObjectToInstantiateIndex: 65535
      m_AllTileFlags: 1073741825
  - first: {x: 3, y: -7, z: 0}
    second:
      serializedVersion: 2
      m_TileIndex: 40
      m_TileSpriteIndex: 77
      m_TileMatrixIndex: 0
      m_TileColorIndex: 0
      m_TileObjectToInstantiateIndex: 65535
      m_AllTileFlags: 1073741825
  - first: {x: 4, y: -7, z: 0}
    second:
      serializedVersion: 2
      m_TileIndex: 41
      m_TileSpriteIndex: 76
      m_TileMatrixIndex: 0
      m_TileColorIndex: 0
      m_TileObjectToInstantiateIndex: 65535
      m_AllTileFlags: 1073741825
  - first: {x: 6, y: -7, z: 0}
    second:
      serializedVersion: 2
      m_TileIndex: 53
      m_TileSpriteIndex: 75
      m_TileMatrixIndex: 0
      m_TileColorIndex: 0
      m_TileObjectToInstantiateIndex: 65535
      m_AllTileFlags: 1073741825
  - first: {x: 7, y: -7, z: 0}
    second:
      serializedVersion: 2
      m_TileIndex: 54
      m_TileSpriteIndex: 74
      m_TileMatrixIndex: 0
      m_TileColorIndex: 0
      m_TileObjectToInstantiateIndex: 65535
      m_AllTileFlags: 1073741825
  - first: {x: 8, y: -7, z: 0}
    second:
      serializedVersion: 2
      m_TileIndex: 55
      m_TileSpriteIndex: 73
      m_TileMatrixIndex: 0
      m_TileColorIndex: 0
      m_TileObjectToInstantiateIndex: 65535
      m_AllTileFlags: 1073741825
  - first: {x: 9, y: -7, z: 0}
    second:
      serializedVersion: 2
      m_TileIndex: 56
      m_TileSpriteIndex: 72
      m_TileMatrixIndex: 0
      m_TileColorIndex: 0
      m_TileObjectToInstantiateIndex: 65535
      m_AllTileFlags: 1073741825
  - first: {x: 10, y: -7, z: 0}
    second:
      serializedVersion: 2
      m_TileIndex: 57
      m_TileSpriteIndex: 71
      m_TileMatrixIndex: 0
      m_TileColorIndex: 0
      m_TileObjectToInstantiateIndex: 65535
      m_AllTileFlags: 1073741825
  - first: {x: 11, y: -7, z: 0}
    second:
      serializedVersion: 2
      m_TileIndex: 58
      m_TileSpriteIndex: 70
      m_TileMatrixIndex: 0
      m_TileColorIndex: 0
      m_TileObjectToInstantiateIndex: 65535
      m_AllTileFlags: 1073741825
  - first: {x: 13, y: -7, z: 0}
    second:
      serializedVersion: 2
      m_TileIndex: 59
      m_TileSpriteIndex: 69
      m_TileMatrixIndex: 0
      m_TileColorIndex: 0
      m_TileObjectToInstantiateIndex: 65535
      m_AllTileFlags: 1073741825
  - first: {x: -1, y: -6, z: 0}
    second:
      serializedVersion: 2
      m_TileIndex: 33
      m_TileSpriteIndex: 68
      m_TileMatrixIndex: 0
      m_TileColorIndex: 0
      m_TileObjectToInstantiateIndex: 65535
      m_AllTileFlags: 1073741825
  - first: {x: 0, y: -6, z: 0}
    second:
      serializedVersion: 2
      m_TileIndex: 34
      m_TileSpriteIndex: 67
      m_TileMatrixIndex: 0
      m_TileColorIndex: 0
      m_TileObjectToInstantiateIndex: 65535
      m_AllTileFlags: 1073741825
  - first: {x: 1, y: -6, z: 0}
    second:
      serializedVersion: 2
      m_TileIndex: 35
      m_TileSpriteIndex: 66
      m_TileMatrixIndex: 0
      m_TileColorIndex: 0
      m_TileObjectToInstantiateIndex: 65535
      m_AllTileFlags: 1073741825
  - first: {x: 2, y: -6, z: 0}
    second:
      serializedVersion: 2
      m_TileIndex: 36
      m_TileSpriteIndex: 65
      m_TileMatrixIndex: 0
      m_TileColorIndex: 0
      m_TileObjectToInstantiateIndex: 65535
      m_AllTileFlags: 1073741825
  - first: {x: 3, y: -6, z: 0}
    second:
      serializedVersion: 2
      m_TileIndex: 37
      m_TileSpriteIndex: 64
      m_TileMatrixIndex: 0
      m_TileColorIndex: 0
      m_TileObjectToInstantiateIndex: 65535
      m_AllTileFlags: 1073741825
  - first: {x: 4, y: -6, z: 0}
    second:
      serializedVersion: 2
      m_TileIndex: 38
      m_TileSpriteIndex: 63
      m_TileMatrixIndex: 0
      m_TileColorIndex: 0
      m_TileObjectToInstantiateIndex: 65535
      m_AllTileFlags: 1073741825
  - first: {x: 6, y: -6, z: 0}
    second:
      serializedVersion: 2
      m_TileIndex: 45
      m_TileSpriteIndex: 62
      m_TileMatrixIndex: 0
      m_TileColorIndex: 0
      m_TileObjectToInstantiateIndex: 65535
      m_AllTileFlags: 1073741825
  - first: {x: 7, y: -6, z: 0}
    second:
      serializedVersion: 2
      m_TileIndex: 46
      m_TileSpriteIndex: 61
      m_TileMatrixIndex: 0
      m_TileColorIndex: 0
      m_TileObjectToInstantiateIndex: 65535
      m_AllTileFlags: 1073741825
  - first: {x: 8, y: -6, z: 0}
    second:
      serializedVersion: 2
      m_TileIndex: 47
      m_TileSpriteIndex: 60
      m_TileMatrixIndex: 0
      m_TileColorIndex: 0
      m_TileObjectToInstantiateIndex: 65535
      m_AllTileFlags: 1073741825
  - first: {x: 9, y: -6, z: 0}
    second:
      serializedVersion: 2
      m_TileIndex: 48
      m_TileSpriteIndex: 59
      m_TileMatrixIndex: 0
      m_TileColorIndex: 0
      m_TileObjectToInstantiateIndex: 65535
      m_AllTileFlags: 1073741825
  - first: {x: 10, y: -6, z: 0}
    second:
      serializedVersion: 2
      m_TileIndex: 49
      m_TileSpriteIndex: 58
      m_TileMatrixIndex: 0
      m_TileColorIndex: 0
      m_TileObjectToInstantiateIndex: 65535
      m_AllTileFlags: 1073741825
  - first: {x: 11, y: -6, z: 0}
    second:
      serializedVersion: 2
      m_TileIndex: 50
      m_TileSpriteIndex: 57
      m_TileMatrixIndex: 0
      m_TileColorIndex: 0
      m_TileObjectToInstantiateIndex: 65535
      m_AllTileFlags: 1073741825
  - first: {x: 12, y: -6, z: 0}
    second:
      serializedVersion: 2
      m_TileIndex: 51
      m_TileSpriteIndex: 56
      m_TileMatrixIndex: 0
      m_TileColorIndex: 0
      m_TileObjectToInstantiateIndex: 65535
      m_AllTileFlags: 1073741825
  - first: {x: 13, y: -6, z: 0}
    second:
      serializedVersion: 2
      m_TileIndex: 52
      m_TileSpriteIndex: 55
      m_TileMatrixIndex: 0
      m_TileColorIndex: 0
      m_TileObjectToInstantiateIndex: 65535
      m_AllTileFlags: 1073741825
  - first: {x: -1, y: -5, z: 0}
    second:
      serializedVersion: 2
      m_TileIndex: 28
      m_TileSpriteIndex: 54
      m_TileMatrixIndex: 0
      m_TileColorIndex: 0
      m_TileObjectToInstantiateIndex: 65535
      m_AllTileFlags: 1073741825
  - first: {x: 0, y: -5, z: 0}
    second:
      serializedVersion: 2
      m_TileIndex: 29
      m_TileSpriteIndex: 53
      m_TileMatrixIndex: 0
      m_TileColorIndex: 0
      m_TileObjectToInstantiateIndex: 65535
      m_AllTileFlags: 1073741825
  - first: {x: 1, y: -5, z: 0}
    second:
      serializedVersion: 2
      m_TileIndex: 30
      m_TileSpriteIndex: 52
      m_TileMatrixIndex: 0
      m_TileColorIndex: 0
      m_TileObjectToInstantiateIndex: 65535
      m_AllTileFlags: 1073741825
  - first: {x: 2, y: -5, z: 0}
    second:
      serializedVersion: 2
      m_TileIndex: 31
      m_TileSpriteIndex: 51
      m_TileMatrixIndex: 0
      m_TileColorIndex: 0
      m_TileObjectToInstantiateIndex: 65535
      m_AllTileFlags: 1073741825
  - first: {x: 4, y: -5, z: 0}
    second:
      serializedVersion: 2
      m_TileIndex: 32
      m_TileSpriteIndex: 50
      m_TileMatrixIndex: 0
      m_TileColorIndex: 0
      m_TileObjectToInstantiateIndex: 65535
      m_AllTileFlags: 1073741825
  - first: {x: 11, y: -5, z: 0}
    second:
      serializedVersion: 2
      m_TileIndex: 42
      m_TileSpriteIndex: 49
      m_TileMatrixIndex: 0
      m_TileColorIndex: 0
      m_TileObjectToInstantiateIndex: 65535
      m_AllTileFlags: 1073741825
  - first: {x: 12, y: -5, z: 0}
    second:
      serializedVersion: 2
      m_TileIndex: 43
      m_TileSpriteIndex: 48
      m_TileMatrixIndex: 0
      m_TileColorIndex: 0
      m_TileObjectToInstantiateIndex: 65535
      m_AllTileFlags: 1073741825
  - first: {x: 13, y: -5, z: 0}
    second:
      serializedVersion: 2
      m_TileIndex: 44
      m_TileSpriteIndex: 47
      m_TileMatrixIndex: 0
      m_TileColorIndex: 0
      m_TileObjectToInstantiateIndex: 65535
      m_AllTileFlags: 1073741825
  - first: {x: -1, y: -4, z: 0}
    second:
      serializedVersion: 2
      m_TileIndex: 21
      m_TileSpriteIndex: 46
      m_TileMatrixIndex: 0
      m_TileColorIndex: 0
      m_TileObjectToInstantiateIndex: 65535
      m_AllTileFlags: 1073741825
  - first: {x: 0, y: -4, z: 0}
    second:
      serializedVersion: 2
      m_TileIndex: 22
      m_TileSpriteIndex: 45
      m_TileMatrixIndex: 0
      m_TileColorIndex: 0
      m_TileObjectToInstantiateIndex: 65535
      m_AllTileFlags: 1073741825
  - first: {x: 1, y: -4, z: 0}
    second:
      serializedVersion: 2
      m_TileIndex: 23
      m_TileSpriteIndex: 44
      m_TileMatrixIndex: 0
      m_TileColorIndex: 0
      m_TileObjectToInstantiateIndex: 65535
      m_AllTileFlags: 1073741825
  - first: {x: 2, y: -4, z: 0}
    second:
      serializedVersion: 2
      m_TileIndex: 24
      m_TileSpriteIndex: 43
      m_TileMatrixIndex: 0
      m_TileColorIndex: 0
      m_TileObjectToInstantiateIndex: 65535
      m_AllTileFlags: 1073741825
  - first: {x: 3, y: -4, z: 0}
    second:
      serializedVersion: 2
      m_TileIndex: 25
      m_TileSpriteIndex: 42
      m_TileMatrixIndex: 0
      m_TileColorIndex: 0
      m_TileObjectToInstantiateIndex: 65535
      m_AllTileFlags: 1073741825
  - first: {x: 4, y: -4, z: 0}
    second:
      serializedVersion: 2
      m_TileIndex: 26
      m_TileSpriteIndex: 41
      m_TileMatrixIndex: 0
      m_TileColorIndex: 0
      m_TileObjectToInstantiateIndex: 65535
      m_AllTileFlags: 1073741825
  - first: {x: 5, y: -4, z: 0}
    second:
      serializedVersion: 2
      m_TileIndex: 27
      m_TileSpriteIndex: 40
      m_TileMatrixIndex: 0
      m_TileColorIndex: 0
      m_TileObjectToInstantiateIndex: 65535
      m_AllTileFlags: 1073741825
  - first: {x: -2, y: -3, z: 0}
    second:
      serializedVersion: 2
      m_TileIndex: 15
      m_TileSpriteIndex: 39
      m_TileMatrixIndex: 0
      m_TileColorIndex: 0
      m_TileObjectToInstantiateIndex: 65535
      m_AllTileFlags: 1073741825
  - first: {x: -1, y: -3, z: 0}
    second:
      serializedVersion: 2
      m_TileIndex: 16
      m_TileSpriteIndex: 38
      m_TileMatrixIndex: 0
      m_TileColorIndex: 0
      m_TileObjectToInstantiateIndex: 65535
      m_AllTileFlags: 1073741825
  - first: {x: 1, y: -3, z: 0}
    second:
      serializedVersion: 2
      m_TileIndex: 17
      m_TileSpriteIndex: 37
      m_TileMatrixIndex: 0
      m_TileColorIndex: 0
      m_TileObjectToInstantiateIndex: 65535
      m_AllTileFlags: 1073741825
  - first: {x: 2, y: -3, z: 0}
    second:
      serializedVersion: 2
      m_TileIndex: 18
      m_TileSpriteIndex: 36
      m_TileMatrixIndex: 0
      m_TileColorIndex: 0
      m_TileObjectToInstantiateIndex: 65535
      m_AllTileFlags: 1073741825
  - first: {x: 3, y: -3, z: 0}
    second:
      serializedVersion: 2
      m_TileIndex: 19
      m_TileSpriteIndex: 35
      m_TileMatrixIndex: 0
      m_TileColorIndex: 0
      m_TileObjectToInstantiateIndex: 65535
      m_AllTileFlags: 1073741825
  - first: {x: 5, y: -3, z: 0}
    second:
      serializedVersion: 2
      m_TileIndex: 20
      m_TileSpriteIndex: 34
      m_TileMatrixIndex: 0
      m_TileColorIndex: 0
      m_TileObjectToInstantiateIndex: 65535
      m_AllTileFlags: 1073741825
  - first: {x: -2, y: -2, z: 0}
    second:
      serializedVersion: 2
      m_TileIndex: 7
      m_TileSpriteIndex: 33
      m_TileMatrixIndex: 0
      m_TileColorIndex: 0
      m_TileObjectToInstantiateIndex: 65535
      m_AllTileFlags: 1073741825
  - first: {x: -1, y: -2, z: 0}
    second:
      serializedVersion: 2
      m_TileIndex: 8
      m_TileSpriteIndex: 32
      m_TileMatrixIndex: 0
      m_TileColorIndex: 0
      m_TileObjectToInstantiateIndex: 65535
      m_AllTileFlags: 1073741825
  - first: {x: 0, y: -2, z: 0}
    second:
      serializedVersion: 2
      m_TileIndex: 9
      m_TileSpriteIndex: 31
      m_TileMatrixIndex: 0
      m_TileColorIndex: 0
      m_TileObjectToInstantiateIndex: 65535
      m_AllTileFlags: 1073741825
  - first: {x: 1, y: -2, z: 0}
    second:
      serializedVersion: 2
      m_TileIndex: 10
      m_TileSpriteIndex: 30
      m_TileMatrixIndex: 0
      m_TileColorIndex: 0
      m_TileObjectToInstantiateIndex: 65535
      m_AllTileFlags: 1073741825
  - first: {x: 2, y: -2, z: 0}
    second:
      serializedVersion: 2
      m_TileIndex: 11
      m_TileSpriteIndex: 29
      m_TileMatrixIndex: 0
      m_TileColorIndex: 0
      m_TileObjectToInstantiateIndex: 65535
      m_AllTileFlags: 1073741825
  - first: {x: 3, y: -2, z: 0}
    second:
      serializedVersion: 2
      m_TileIndex: 12
      m_TileSpriteIndex: 28
      m_TileMatrixIndex: 0
      m_TileColorIndex: 0
      m_TileObjectToInstantiateIndex: 65535
      m_AllTileFlags: 1073741825
  - first: {x: 4, y: -2, z: 0}
    second:
      serializedVersion: 2
      m_TileIndex: 13
      m_TileSpriteIndex: 27
      m_TileMatrixIndex: 0
      m_TileColorIndex: 0
      m_TileObjectToInstantiateIndex: 65535
      m_AllTileFlags: 1073741825
  - first: {x: 5, y: -2, z: 0}
    second:
      serializedVersion: 2
      m_TileIndex: 14
      m_TileSpriteIndex: 26
      m_TileMatrixIndex: 0
      m_TileColorIndex: 0
      m_TileObjectToInstantiateIndex: 65535
      m_AllTileFlags: 1073741825
  - first: {x: -1, y: -1, z: 0}
    second:
      serializedVersion: 2
      m_TileIndex: 0
      m_TileSpriteIndex: 25
      m_TileMatrixIndex: 0
      m_TileColorIndex: 0
      m_TileObjectToInstantiateIndex: 65535
      m_AllTileFlags: 1073741825
  - first: {x: 0, y: -1, z: 0}
    second:
      serializedVersion: 2
      m_TileIndex: 1
      m_TileSpriteIndex: 24
      m_TileMatrixIndex: 0
      m_TileColorIndex: 0
      m_TileObjectToInstantiateIndex: 65535
      m_AllTileFlags: 1073741825
  - first: {x: 1, y: -1, z: 0}
    second:
      serializedVersion: 2
      m_TileIndex: 2
      m_TileSpriteIndex: 23
      m_TileMatrixIndex: 0
      m_TileColorIndex: 0
      m_TileObjectToInstantiateIndex: 65535
      m_AllTileFlags: 1073741825
  - first: {x: 2, y: -1, z: 0}
    second:
      serializedVersion: 2
      m_TileIndex: 3
      m_TileSpriteIndex: 22
      m_TileMatrixIndex: 0
      m_TileColorIndex: 0
      m_TileObjectToInstantiateIndex: 65535
      m_AllTileFlags: 1073741825
  - first: {x: 3, y: -1, z: 0}
    second:
      serializedVersion: 2
      m_TileIndex: 4
      m_TileSpriteIndex: 21
      m_TileMatrixIndex: 0
      m_TileColorIndex: 0
      m_TileObjectToInstantiateIndex: 65535
      m_AllTileFlags: 1073741825
  - first: {x: 4, y: -1, z: 0}
    second:
      serializedVersion: 2
      m_TileIndex: 5
      m_TileSpriteIndex: 20
      m_TileMatrixIndex: 0
      m_TileColorIndex: 0
      m_TileObjectToInstantiateIndex: 65535
      m_AllTileFlags: 1073741825
  - first: {x: 5, y: -1, z: 0}
    second:
      serializedVersion: 2
      m_TileIndex: 6
      m_TileSpriteIndex: 19
      m_TileMatrixIndex: 0
      m_TileColorIndex: 0
      m_TileObjectToInstantiateIndex: 65535
      m_AllTileFlags: 1073741825
  - first: {x: 8, y: 0, z: 0}
    second:
      serializedVersion: 2
      m_TileIndex: 15
      m_TileSpriteIndex: 39
      m_TileMatrixIndex: 0
      m_TileColorIndex: 0
      m_TileObjectToInstantiateIndex: 65535
      m_AllTileFlags: 1073741825
  - first: {x: 9, y: 0, z: 0}
    second:
      serializedVersion: 2
      m_TileIndex: 16
      m_TileSpriteIndex: 38
      m_TileMatrixIndex: 0
      m_TileColorIndex: 0
      m_TileObjectToInstantiateIndex: 65535
      m_AllTileFlags: 1073741825
  - first: {x: 8, y: 1, z: 0}
    second:
      serializedVersion: 2
      m_TileIndex: 7
      m_TileSpriteIndex: 33
      m_TileMatrixIndex: 0
      m_TileColorIndex: 0
      m_TileObjectToInstantiateIndex: 65535
      m_AllTileFlags: 1073741825
  - first: {x: 9, y: 1, z: 0}
    second:
      serializedVersion: 2
      m_TileIndex: 8
      m_TileSpriteIndex: 32
      m_TileMatrixIndex: 0
      m_TileColorIndex: 0
      m_TileObjectToInstantiateIndex: 65535
      m_AllTileFlags: 1073741825
  m_AnimatedTiles: {}
  m_TileAssetArray:
  - m_RefCount: 1
    m_Data: {fileID: 11400000, guid: 6daec0f3c491bc04187b2fbd701fdb69, type: 2}
  - m_RefCount: 1
    m_Data: {fileID: 11400000, guid: 156379e0be4c28646996ea3130a6139c, type: 2}
  - m_RefCount: 1
    m_Data: {fileID: 11400000, guid: 2817126213aa8b146926e15001d9e5fb, type: 2}
  - m_RefCount: 1
    m_Data: {fileID: 11400000, guid: b3e84b013d6d73b4b9ca362bdd5feae4, type: 2}
  - m_RefCount: 1
    m_Data: {fileID: 11400000, guid: d07eb1bba8e79e143a85edd31f19f452, type: 2}
  - m_RefCount: 1
    m_Data: {fileID: 11400000, guid: eb0b3f7bc907c504aadc6d92a7db9234, type: 2}
  - m_RefCount: 1
    m_Data: {fileID: 11400000, guid: be670c612838b604bb636ee91b2226b2, type: 2}
  - m_RefCount: 2
    m_Data: {fileID: 11400000, guid: bef5bf79b5a462e4ea062fb6dfe4e8bd, type: 2}
  - m_RefCount: 2
    m_Data: {fileID: 11400000, guid: c79270a0d4a82ad4b9a1bce8cabca014, type: 2}
  - m_RefCount: 1
    m_Data: {fileID: 11400000, guid: 7f9e892ba90f36c4dbfdba0f4a8e35b0, type: 2}
  - m_RefCount: 1
    m_Data: {fileID: 11400000, guid: 1dd2a55cc428922459ef65fd194e04b3, type: 2}
  - m_RefCount: 1
    m_Data: {fileID: 11400000, guid: 7b4bbf138ee0ff941b49c135cb0ecd5c, type: 2}
  - m_RefCount: 1
    m_Data: {fileID: 11400000, guid: 5f6a8e0a4c61148489ee74c1f1ee131b, type: 2}
  - m_RefCount: 1
    m_Data: {fileID: 11400000, guid: dff0db843cd76d84a80359a9cf3efcc7, type: 2}
  - m_RefCount: 1
    m_Data: {fileID: 11400000, guid: 6f483cc4591a481478a6f518b7133710, type: 2}
  - m_RefCount: 2
    m_Data: {fileID: 11400000, guid: f41c4894cc188654b8d108f90cf0ba6a, type: 2}
  - m_RefCount: 2
    m_Data: {fileID: 11400000, guid: a5a59afbc58212a44bafa5d729d3faa8, type: 2}
  - m_RefCount: 1
    m_Data: {fileID: 11400000, guid: f985b89caebf85a449e04857936b01fd, type: 2}
  - m_RefCount: 1
    m_Data: {fileID: 11400000, guid: a324962159580fb4cbc03ba8e9777c4b, type: 2}
  - m_RefCount: 1
    m_Data: {fileID: 11400000, guid: 1c764c54f2a033d4996c77e7ce362d73, type: 2}
  - m_RefCount: 1
    m_Data: {fileID: 11400000, guid: 99bd802e102dec948bd7b3ecce684ef2, type: 2}
  - m_RefCount: 1
    m_Data: {fileID: 11400000, guid: 6d13ced4551a15b4c8aff032d738abc5, type: 2}
  - m_RefCount: 1
    m_Data: {fileID: 11400000, guid: 6b0145b2d3a000d4683d497d88827abf, type: 2}
  - m_RefCount: 1
    m_Data: {fileID: 11400000, guid: 2eb7e758f8f1e854db26d09dffec1ff8, type: 2}
  - m_RefCount: 1
    m_Data: {fileID: 11400000, guid: b17d9a420d686ec4097b0131f5c3abc4, type: 2}
  - m_RefCount: 1
    m_Data: {fileID: 11400000, guid: 1a90e7e145fdc204abef06c6d09f274d, type: 2}
  - m_RefCount: 1
    m_Data: {fileID: 11400000, guid: e9d88178c2b441441994335da34e50b9, type: 2}
  - m_RefCount: 1
    m_Data: {fileID: 11400000, guid: 2527d0a4543b5c94bb2193495124145e, type: 2}
  - m_RefCount: 1
    m_Data: {fileID: 11400000, guid: eec1a7739ca53d54f9f111259acd32e6, type: 2}
  - m_RefCount: 1
    m_Data: {fileID: 11400000, guid: f43401ae6d146ff448b66193628673ab, type: 2}
  - m_RefCount: 1
    m_Data: {fileID: 11400000, guid: 9ec2c16b8b87b1f4ca667b77463a13c7, type: 2}
  - m_RefCount: 1
    m_Data: {fileID: 11400000, guid: ac752b0095eaf0c4ca7f48914d98724f, type: 2}
  - m_RefCount: 1
    m_Data: {fileID: 11400000, guid: e77680dfa7fcfbf42aaa6d7f8e06c095, type: 2}
  - m_RefCount: 1
    m_Data: {fileID: 11400000, guid: 3f1a8baf1c5b6fd4b9b4c7e3eafbffbd, type: 2}
  - m_RefCount: 1
    m_Data: {fileID: 11400000, guid: 618784d0383b845429f2b66931d901fe, type: 2}
  - m_RefCount: 1
    m_Data: {fileID: 11400000, guid: 47d782b6cc4b59549bc80ec2ff60bf42, type: 2}
  - m_RefCount: 1
    m_Data: {fileID: 11400000, guid: d913fd7c33e81fa48a6b6108ce6f369e, type: 2}
  - m_RefCount: 1
    m_Data: {fileID: 11400000, guid: 64b76f1bdd6053c4fb669e6837a9ea18, type: 2}
  - m_RefCount: 1
    m_Data: {fileID: 11400000, guid: 015225e521d370247962301df34f4552, type: 2}
  - m_RefCount: 1
    m_Data: {fileID: 11400000, guid: 1415ac8b905c17c4196912ab556f2c66, type: 2}
  - m_RefCount: 1
    m_Data: {fileID: 11400000, guid: 55fdbd40cd3bacb479cba383e7286026, type: 2}
  - m_RefCount: 1
    m_Data: {fileID: 11400000, guid: 68a4d6294f5b45d4fab81db4a135afa7, type: 2}
  - m_RefCount: 1
    m_Data: {fileID: 11400000, guid: f0040326fef470a49910cb4eea1982c8, type: 2}
  - m_RefCount: 1
    m_Data: {fileID: 11400000, guid: 9d5e23165a3c0e74484621043c0cf86f, type: 2}
  - m_RefCount: 1
    m_Data: {fileID: 11400000, guid: 81d43d11272b2a94e8859ada39644355, type: 2}
  - m_RefCount: 1
    m_Data: {fileID: 11400000, guid: 41acdccd95acb8f468c183ff63ac1b30, type: 2}
  - m_RefCount: 1
    m_Data: {fileID: 11400000, guid: e2de00ca879447040bed842ffce1b539, type: 2}
  - m_RefCount: 1
    m_Data: {fileID: 11400000, guid: 898e452d248ee09418d215866ec7b5d0, type: 2}
  - m_RefCount: 1
    m_Data: {fileID: 11400000, guid: 40fbb98bf85e400439a7bf1f8f214943, type: 2}
  - m_RefCount: 1
    m_Data: {fileID: 11400000, guid: f5376e9ca9fca5c449b6a61d859cf603, type: 2}
  - m_RefCount: 1
    m_Data: {fileID: 11400000, guid: 1c9a9e81a30bfc24e82fad290af07b53, type: 2}
  - m_RefCount: 1
    m_Data: {fileID: 11400000, guid: 20477376cc723a246ac35dbf0e397eda, type: 2}
  - m_RefCount: 1
    m_Data: {fileID: 11400000, guid: 58cd47948beb7f34985e03e5dd9889f2, type: 2}
  - m_RefCount: 1
    m_Data: {fileID: 11400000, guid: 3dbe563fa11b803468f8562b4459815d, type: 2}
  - m_RefCount: 1
    m_Data: {fileID: 11400000, guid: 9c0f0f5a09a800c4c947d85c544ba39d, type: 2}
  - m_RefCount: 1
    m_Data: {fileID: 11400000, guid: ec1caa87f7b3d4b4bb3beb0a757656cd, type: 2}
  - m_RefCount: 1
    m_Data: {fileID: 11400000, guid: 0144fff60fe9e4a4cb58adaf76421286, type: 2}
  - m_RefCount: 1
    m_Data: {fileID: 11400000, guid: 5cd0dfd4fe12bdf4089f62a03131e840, type: 2}
  - m_RefCount: 1
    m_Data: {fileID: 11400000, guid: 605f9ebbac8f5e54cb023aaed2eb9f76, type: 2}
  - m_RefCount: 1
    m_Data: {fileID: 11400000, guid: 80ed9599772649647b65ca63ba4c21db, type: 2}
  - m_RefCount: 1
    m_Data: {fileID: 11400000, guid: 37064773faa495a4aa7e8c7de28c34ff, type: 2}
  - m_RefCount: 1
    m_Data: {fileID: 11400000, guid: cdb9acc5415a6c141b7f704c6964cd24, type: 2}
  - m_RefCount: 1
    m_Data: {fileID: 11400000, guid: 1c03890f6d4e2ab428fb14637e34ed0a, type: 2}
  - m_RefCount: 1
    m_Data: {fileID: 11400000, guid: 23dbdf72fcf65ef43b9a0a4eda2b4ca7, type: 2}
  - m_RefCount: 1
    m_Data: {fileID: 11400000, guid: 8c0e6225d0255634c8a5354bac9d24a8, type: 2}
  - m_RefCount: 1
    m_Data: {fileID: 11400000, guid: 9a17ed49975943f44b666591e2440e6d, type: 2}
  - m_RefCount: 1
    m_Data: {fileID: 11400000, guid: fa22e0d3d141faa4cb42617d5a7890b5, type: 2}
  - m_RefCount: 1
    m_Data: {fileID: 11400000, guid: 0a42571ecaf49c643ab817d6f1e92185, type: 2}
  - m_RefCount: 1
    m_Data: {fileID: 11400000, guid: e7a4ba40d4d06dc4582e52ed463c59c1, type: 2}
  - m_RefCount: 1
    m_Data: {fileID: 11400000, guid: 67c4a6e25de634f4d9026794433b52cd, type: 2}
  - m_RefCount: 1
    m_Data: {fileID: 11400000, guid: 3c80bdb2a95ba7443ab66407d2841930, type: 2}
  - m_RefCount: 1
    m_Data: {fileID: 11400000, guid: 608ddaa67f51f5f42a38787a4c4509d0, type: 2}
  - m_RefCount: 1
    m_Data: {fileID: 11400000, guid: 55fc328a355210446a8754c8a465bda4, type: 2}
  - m_RefCount: 1
    m_Data: {fileID: 11400000, guid: cdc687d681b662f4fa94f4464492a1f0, type: 2}
  - m_RefCount: 1
    m_Data: {fileID: 11400000, guid: 2a4e716341afb194e86dce639e276b4b, type: 2}
  - m_RefCount: 1
    m_Data: {fileID: 11400000, guid: 8db43dce7eaeaba4c9cfed460aab46bf, type: 2}
  - m_RefCount: 1
    m_Data: {fileID: 11400000, guid: 3dadfe8f0c8eaee48b99ea51d854b25b, type: 2}
  - m_RefCount: 1
    m_Data: {fileID: 11400000, guid: 212012fd8fa6e2f49a8bbdcb23b424e2, type: 2}
  - m_RefCount: 1
    m_Data: {fileID: 11400000, guid: 746300ad1d25e254bad5338b7dd975d8, type: 2}
  - m_RefCount: 1
    m_Data: {fileID: 11400000, guid: 133228c917fed4540927020b0fe8df13, type: 2}
  - m_RefCount: 1
    m_Data: {fileID: 11400000, guid: bd24d14c48204614c915965079a78ff8, type: 2}
  - m_RefCount: 1
    m_Data: {fileID: 11400000, guid: 34071eec05653c342b9635d93fa1239b, type: 2}
  - m_RefCount: 1
    m_Data: {fileID: 11400000, guid: e84ead38a507aea4fb5dc2966c636aea, type: 2}
  - m_RefCount: 0
    m_Data: {fileID: 0}
  - m_RefCount: 0
    m_Data: {fileID: 0}
  - m_RefCount: 0
    m_Data: {fileID: 0}
  - m_RefCount: 0
    m_Data: {fileID: 0}
  - m_RefCount: 0
    m_Data: {fileID: 0}
  - m_RefCount: 0
    m_Data: {fileID: 0}
  - m_RefCount: 0
    m_Data: {fileID: 0}
  - m_RefCount: 0
    m_Data: {fileID: 0}
  - m_RefCount: 0
    m_Data: {fileID: 0}
  - m_RefCount: 0
    m_Data: {fileID: 0}
  - m_RefCount: 0
    m_Data: {fileID: 0}
  - m_RefCount: 0
    m_Data: {fileID: 0}
  - m_RefCount: 0
    m_Data: {fileID: 0}
  - m_RefCount: 0
    m_Data: {fileID: 0}
  - m_RefCount: 0
    m_Data: {fileID: 0}
  - m_RefCount: 0
    m_Data: {fileID: 0}
  - m_RefCount: 0
    m_Data: {fileID: 0}
  - m_RefCount: 0
    m_Data: {fileID: 0}
  - m_RefCount: 0
    m_Data: {fileID: 0}
  m_TileSpriteArray:
  - m_RefCount: 0
    m_Data: {fileID: 0}
  - m_RefCount: 0
    m_Data: {fileID: 0}
  - m_RefCount: 0
    m_Data: {fileID: 0}
  - m_RefCount: 0
    m_Data: {fileID: 0}
  - m_RefCount: 0
    m_Data: {fileID: 0}
  - m_RefCount: 0
    m_Data: {fileID: 0}
  - m_RefCount: 0
    m_Data: {fileID: 0}
  - m_RefCount: 0
    m_Data: {fileID: 0}
  - m_RefCount: 0
    m_Data: {fileID: 0}
  - m_RefCount: 0
    m_Data: {fileID: 0}
  - m_RefCount: 0
    m_Data: {fileID: 0}
  - m_RefCount: 0
    m_Data: {fileID: 0}
  - m_RefCount: 0
    m_Data: {fileID: 0}
  - m_RefCount: 0
    m_Data: {fileID: 0}
  - m_RefCount: 0
    m_Data: {fileID: 0}
  - m_RefCount: 0
    m_Data: {fileID: 0}
  - m_RefCount: 0
    m_Data: {fileID: 0}
  - m_RefCount: 0
    m_Data: {fileID: 0}
  - m_RefCount: 0
    m_Data: {fileID: 0}
  - m_RefCount: 1
    m_Data: {fileID: -7748411698436431775, guid: 64596d3170b2ef348ad7449eaca34353,
      type: 3}
  - m_RefCount: 1
    m_Data: {fileID: -6699188833294487956, guid: 64596d3170b2ef348ad7449eaca34353,
      type: 3}
  - m_RefCount: 1
    m_Data: {fileID: -6137078237740123019, guid: 64596d3170b2ef348ad7449eaca34353,
      type: 3}
  - m_RefCount: 1
    m_Data: {fileID: 447170383946392388, guid: 64596d3170b2ef348ad7449eaca34353, type: 3}
  - m_RefCount: 1
    m_Data: {fileID: -4931442334889727867, guid: 64596d3170b2ef348ad7449eaca34353,
      type: 3}
  - m_RefCount: 1
    m_Data: {fileID: -1341355028793150682, guid: 64596d3170b2ef348ad7449eaca34353,
      type: 3}
  - m_RefCount: 1
    m_Data: {fileID: 3015108160119196786, guid: 64596d3170b2ef348ad7449eaca34353,
      type: 3}
  - m_RefCount: 1
    m_Data: {fileID: 5275045243617762801, guid: 64596d3170b2ef348ad7449eaca34353,
      type: 3}
  - m_RefCount: 1
    m_Data: {fileID: -207188939592405040, guid: 64596d3170b2ef348ad7449eaca34353,
      type: 3}
  - m_RefCount: 1
    m_Data: {fileID: -2522738999556755038, guid: 64596d3170b2ef348ad7449eaca34353,
      type: 3}
  - m_RefCount: 1
    m_Data: {fileID: -837791438017993197, guid: 64596d3170b2ef348ad7449eaca34353,
      type: 3}
  - m_RefCount: 1
    m_Data: {fileID: -3568837575508560838, guid: 64596d3170b2ef348ad7449eaca34353,
      type: 3}
  - m_RefCount: 1
    m_Data: {fileID: -5369048569475300650, guid: 64596d3170b2ef348ad7449eaca34353,
      type: 3}
  - m_RefCount: 2
    m_Data: {fileID: 564929243448431488, guid: 64596d3170b2ef348ad7449eaca34353, type: 3}
  - m_RefCount: 2
    m_Data: {fileID: -7494559084132246686, guid: 64596d3170b2ef348ad7449eaca34353,
      type: 3}
  - m_RefCount: 1
    m_Data: {fileID: 1792330531714975051, guid: 64596d3170b2ef348ad7449eaca34353,
      type: 3}
  - m_RefCount: 1
    m_Data: {fileID: 8111708671507387686, guid: 64596d3170b2ef348ad7449eaca34353,
      type: 3}
  - m_RefCount: 1
    m_Data: {fileID: -2431852783640957643, guid: 64596d3170b2ef348ad7449eaca34353,
      type: 3}
  - m_RefCount: 1
    m_Data: {fileID: 7590042509879551486, guid: 64596d3170b2ef348ad7449eaca34353,
      type: 3}
  - m_RefCount: 2
    m_Data: {fileID: 7605390779576391807, guid: 64596d3170b2ef348ad7449eaca34353,
      type: 3}
  - m_RefCount: 2
    m_Data: {fileID: 1483716367020507995, guid: 64596d3170b2ef348ad7449eaca34353,
      type: 3}
  - m_RefCount: 1
    m_Data: {fileID: -1572428412166489337, guid: 64596d3170b2ef348ad7449eaca34353,
      type: 3}
  - m_RefCount: 1
    m_Data: {fileID: 5427462633852719439, guid: 64596d3170b2ef348ad7449eaca34353,
      type: 3}
  - m_RefCount: 1
    m_Data: {fileID: 5183879478584872427, guid: 64596d3170b2ef348ad7449eaca34353,
      type: 3}
  - m_RefCount: 1
    m_Data: {fileID: 4777526185495237288, guid: 64596d3170b2ef348ad7449eaca34353,
      type: 3}
  - m_RefCount: 1
    m_Data: {fileID: 6174953132538344450, guid: 64596d3170b2ef348ad7449eaca34353,
      type: 3}
  - m_RefCount: 1
    m_Data: {fileID: -5885634662172785014, guid: 64596d3170b2ef348ad7449eaca34353,
      type: 3}
  - m_RefCount: 1
    m_Data: {fileID: 2707335502640410086, guid: 64596d3170b2ef348ad7449eaca34353,
      type: 3}
  - m_RefCount: 1
    m_Data: {fileID: 3654559112912904499, guid: cbda75888607efa48b8cc5aa210ec9e7,
      type: 3}
  - m_RefCount: 1
    m_Data: {fileID: -6424451928511770465, guid: cbda75888607efa48b8cc5aa210ec9e7,
      type: 3}
  - m_RefCount: 1
    m_Data: {fileID: 8419083815564638424, guid: cbda75888607efa48b8cc5aa210ec9e7,
      type: 3}
  - m_RefCount: 1
    m_Data: {fileID: -2937916395473532141, guid: 64596d3170b2ef348ad7449eaca34353,
      type: 3}
  - m_RefCount: 1
    m_Data: {fileID: 2194716911614834245, guid: 64596d3170b2ef348ad7449eaca34353,
      type: 3}
  - m_RefCount: 1
    m_Data: {fileID: -2669170914924700776, guid: 64596d3170b2ef348ad7449eaca34353,
      type: 3}
  - m_RefCount: 1
    m_Data: {fileID: -8442653749990929554, guid: 64596d3170b2ef348ad7449eaca34353,
      type: 3}
  - m_RefCount: 1
    m_Data: {fileID: 2994329820254719502, guid: 64596d3170b2ef348ad7449eaca34353,
      type: 3}
  - m_RefCount: 1
    m_Data: {fileID: 3926345102424767361, guid: cbda75888607efa48b8cc5aa210ec9e7,
      type: 3}
  - m_RefCount: 1
    m_Data: {fileID: -2798492419843740421, guid: cbda75888607efa48b8cc5aa210ec9e7,
      type: 3}
  - m_RefCount: 1
    m_Data: {fileID: -3710558691043443774, guid: cbda75888607efa48b8cc5aa210ec9e7,
      type: 3}
  - m_RefCount: 1
    m_Data: {fileID: 5606834583796660423, guid: cbda75888607efa48b8cc5aa210ec9e7,
      type: 3}
  - m_RefCount: 1
    m_Data: {fileID: 4448936325934836951, guid: cbda75888607efa48b8cc5aa210ec9e7,
      type: 3}
  - m_RefCount: 1
    m_Data: {fileID: -5939013213308153857, guid: cbda75888607efa48b8cc5aa210ec9e7,
      type: 3}
  - m_RefCount: 1
    m_Data: {fileID: -3357637185121131108, guid: cbda75888607efa48b8cc5aa210ec9e7,
      type: 3}
  - m_RefCount: 1
    m_Data: {fileID: -2348861266992978859, guid: cbda75888607efa48b8cc5aa210ec9e7,
      type: 3}
  - m_RefCount: 1
    m_Data: {fileID: 6606284661505685727, guid: 64596d3170b2ef348ad7449eaca34353,
      type: 3}
  - m_RefCount: 1
    m_Data: {fileID: -8294220327082401847, guid: 64596d3170b2ef348ad7449eaca34353,
      type: 3}
  - m_RefCount: 1
    m_Data: {fileID: 2304556813603882739, guid: 64596d3170b2ef348ad7449eaca34353,
      type: 3}
  - m_RefCount: 1
    m_Data: {fileID: 5490542140875049356, guid: 64596d3170b2ef348ad7449eaca34353,
      type: 3}
  - m_RefCount: 1
    m_Data: {fileID: -8138093916109671446, guid: 64596d3170b2ef348ad7449eaca34353,
      type: 3}
  - m_RefCount: 1
    m_Data: {fileID: -8770903817180651878, guid: 64596d3170b2ef348ad7449eaca34353,
      type: 3}
  - m_RefCount: 1
    m_Data: {fileID: 80045981110417676, guid: cbda75888607efa48b8cc5aa210ec9e7, type: 3}
  - m_RefCount: 1
    m_Data: {fileID: -6082442704826384057, guid: cbda75888607efa48b8cc5aa210ec9e7,
      type: 3}
  - m_RefCount: 1
    m_Data: {fileID: -3255718703634373245, guid: cbda75888607efa48b8cc5aa210ec9e7,
      type: 3}
  - m_RefCount: 1
    m_Data: {fileID: 2336410013276161910, guid: cbda75888607efa48b8cc5aa210ec9e7,
      type: 3}
  - m_RefCount: 1
    m_Data: {fileID: 413562577980292160, guid: cbda75888607efa48b8cc5aa210ec9e7, type: 3}
  - m_RefCount: 1
    m_Data: {fileID: 6821029266698331714, guid: cbda75888607efa48b8cc5aa210ec9e7,
      type: 3}
  - m_RefCount: 1
    m_Data: {fileID: -7566792591122812555, guid: cbda75888607efa48b8cc5aa210ec9e7,
      type: 3}
  - m_RefCount: 1
    m_Data: {fileID: 7285348837734541093, guid: 64596d3170b2ef348ad7449eaca34353,
      type: 3}
  - m_RefCount: 1
    m_Data: {fileID: 5296968206519853230, guid: 64596d3170b2ef348ad7449eaca34353,
      type: 3}
  - m_RefCount: 1
    m_Data: {fileID: -6926986307630304741, guid: 64596d3170b2ef348ad7449eaca34353,
      type: 3}
  - m_RefCount: 1
    m_Data: {fileID: 2773259942581850527, guid: cbda75888607efa48b8cc5aa210ec9e7,
      type: 3}
  - m_RefCount: 1
    m_Data: {fileID: 4359036535101857857, guid: cbda75888607efa48b8cc5aa210ec9e7,
      type: 3}
  - m_RefCount: 1
    m_Data: {fileID: -1478711713201070543, guid: cbda75888607efa48b8cc5aa210ec9e7,
      type: 3}
  - m_RefCount: 1
    m_Data: {fileID: 698731175167071424, guid: cbda75888607efa48b8cc5aa210ec9e7, type: 3}
  - m_RefCount: 1
    m_Data: {fileID: -1167122661560391947, guid: cbda75888607efa48b8cc5aa210ec9e7,
      type: 3}
  - m_RefCount: 1
    m_Data: {fileID: 870594970540950031, guid: cbda75888607efa48b8cc5aa210ec9e7, type: 3}
  - m_RefCount: 1
    m_Data: {fileID: -2864474096473874618, guid: cbda75888607efa48b8cc5aa210ec9e7,
      type: 3}
  - m_RefCount: 1
    m_Data: {fileID: -4512491637037113173, guid: cbda75888607efa48b8cc5aa210ec9e7,
      type: 3}
  - m_RefCount: 1
    m_Data: {fileID: -8927094241462898341, guid: cbda75888607efa48b8cc5aa210ec9e7,
      type: 3}
  - m_RefCount: 1
    m_Data: {fileID: 8914173616558656830, guid: cbda75888607efa48b8cc5aa210ec9e7,
      type: 3}
  - m_RefCount: 1
    m_Data: {fileID: 2163651356252075967, guid: cbda75888607efa48b8cc5aa210ec9e7,
      type: 3}
  - m_RefCount: 1
    m_Data: {fileID: 4721702022188593585, guid: cbda75888607efa48b8cc5aa210ec9e7,
      type: 3}
  - m_RefCount: 1
    m_Data: {fileID: -8505375844734763868, guid: cbda75888607efa48b8cc5aa210ec9e7,
      type: 3}
  - m_RefCount: 1
    m_Data: {fileID: 8079317619694085574, guid: cbda75888607efa48b8cc5aa210ec9e7,
      type: 3}
  - m_RefCount: 1
    m_Data: {fileID: 7725639669302572181, guid: cbda75888607efa48b8cc5aa210ec9e7,
      type: 3}
  - m_RefCount: 1
    m_Data: {fileID: -6113600888793028628, guid: cbda75888607efa48b8cc5aa210ec9e7,
      type: 3}
  - m_RefCount: 1
    m_Data: {fileID: -1753411410753139707, guid: cbda75888607efa48b8cc5aa210ec9e7,
      type: 3}
  - m_RefCount: 1
    m_Data: {fileID: -880445252956389495, guid: cbda75888607efa48b8cc5aa210ec9e7,
      type: 3}
  - m_RefCount: 1
    m_Data: {fileID: -3028661928358845145, guid: cbda75888607efa48b8cc5aa210ec9e7,
      type: 3}
  - m_RefCount: 1
    m_Data: {fileID: -9170205783142994416, guid: cbda75888607efa48b8cc5aa210ec9e7,
      type: 3}
  - m_RefCount: 1
    m_Data: {fileID: -546964068504613984, guid: cbda75888607efa48b8cc5aa210ec9e7,
      type: 3}
  - m_RefCount: 1
    m_Data: {fileID: 2021185714541215921, guid: cbda75888607efa48b8cc5aa210ec9e7,
      type: 3}
  - m_RefCount: 1
    m_Data: {fileID: -7425183168995206135, guid: cbda75888607efa48b8cc5aa210ec9e7,
      type: 3}
  m_TileMatrixArray:
  - m_RefCount: 87
    m_Data:
      e00: 1
      e01: 0
      e02: 0
      e03: 0
      e10: 0
      e11: 1
      e12: 0
      e13: 0
      e20: 0
      e21: 0
      e22: 1
      e23: 0
      e30: 0
      e31: 0
      e32: 0
      e33: 1
  m_TileColorArray:
  - m_RefCount: 87
    m_Data: {r: 1, g: 1, b: 1, a: 1}
  m_TileObjectToInstantiateArray: []
  m_AnimationFrameRate: 1
  m_Color: {r: 1, g: 1, b: 1, a: 1}
  m_Origin: {x: -2, y: -12, z: 0}
  m_Size: {x: 16, y: 14, z: 1}
  m_TileAnchor: {x: 0.5, y: 0.5, z: 0}
  m_TileOrientation: 0
  m_TileOrientationMatrix:
    e00: 1
    e01: 0
    e02: 0
    e03: 0
    e10: 0
    e11: 1
    e12: 0
    e13: 0
    e20: 0
    e21: 0
    e22: 1
    e23: 0
    e30: 0
    e31: 0
    e32: 0
    e33: 1
--- !u!483693784 &2174274667022340679
TilemapRenderer:
  m_ObjectHideFlags: 0
  m_CorrespondingSourceObject: {fileID: 0}
  m_PrefabInstance: {fileID: 0}
  m_PrefabAsset: {fileID: 0}
  m_GameObject: {fileID: 1883455258204122952}
  m_Enabled: 0
  m_CastShadows: 0
  m_ReceiveShadows: 0
  m_DynamicOccludee: 0
  m_MotionVectors: 1
  m_LightProbeUsage: 0
  m_ReflectionProbeUsage: 0
  m_RayTracingMode: 0
  m_RenderingLayerMask: 1
  m_RendererPriority: 0
  m_Materials:
  - {fileID: 10754, guid: 0000000000000000f000000000000000, type: 0}
  m_StaticBatchInfo:
    firstSubMesh: 0
    subMeshCount: 0
  m_StaticBatchRoot: {fileID: 0}
  m_ProbeAnchor: {fileID: 0}
  m_LightProbeVolumeOverride: {fileID: 0}
  m_ScaleInLightmap: 1
  m_ReceiveGI: 1
  m_PreserveUVs: 0
  m_IgnoreNormalsForChartDetection: 0
  m_ImportantGI: 0
  m_StitchLightmapSeams: 1
  m_SelectedEditorRenderState: 0
  m_MinimumChartSize: 4
  m_AutoUVMaxDistance: 0.5
  m_AutoUVMaxAngle: 89
  m_LightmapParameters: {fileID: 0}
  m_SortingLayerID: 0
  m_SortingLayer: 0
  m_SortingOrder: 0
  m_ChunkSize: {x: 32, y: 32, z: 32}
  m_ChunkCullingBounds: {x: 0, y: 0, z: 0}
  m_MaxChunkCount: 16
  m_MaxFrameAge: 16
  m_SortOrder: 0
  m_Mode: 0
  m_DetectChunkCullingBounds: 0
  m_MaskInteraction: 0
--- !u!1 &3149577331838596404
GameObject:
  m_ObjectHideFlags: 0
  m_CorrespondingSourceObject: {fileID: 0}
  m_PrefabInstance: {fileID: 0}
  m_PrefabAsset: {fileID: 0}
  serializedVersion: 6
  m_Component:
  - component: {fileID: 9113952671365348219}
  - component: {fileID: 3682084893516432113}
  m_Layer: 31
  m_Name: Escenario02
  m_TagString: Untagged
  m_Icon: {fileID: 0}
  m_NavMeshLayer: 0
  m_StaticEditorFlags: 0
  m_IsActive: 1
--- !u!4 &9113952671365348219
Transform:
  m_ObjectHideFlags: 0
  m_CorrespondingSourceObject: {fileID: 0}
  m_PrefabInstance: {fileID: 0}
  m_PrefabAsset: {fileID: 0}
  m_GameObject: {fileID: 3149577331838596404}
  m_LocalRotation: {x: 0, y: 0, z: 0, w: 1}
  m_LocalPosition: {x: 0, y: 0, z: 0}
  m_LocalScale: {x: 1, y: 1, z: 1}
  m_Children:
  - {fileID: 8601293596179401828}
  m_Father: {fileID: 0}
  m_RootOrder: 0
  m_LocalEulerAnglesHint: {x: 0, y: 0, z: 0}
--- !u!156049354 &3682084893516432113
Grid:
  m_ObjectHideFlags: 0
  m_CorrespondingSourceObject: {fileID: 0}
  m_PrefabInstance: {fileID: 0}
  m_PrefabAsset: {fileID: 0}
  m_GameObject: {fileID: 3149577331838596404}
  m_Enabled: 1
  m_CellSize: {x: 1, y: 1, z: 0}
  m_CellGap: {x: 0, y: 0, z: 0}
  m_CellLayout: 0
  m_CellSwizzle: 0
--- !u!114 &2062807721870042697
MonoBehaviour:
  m_ObjectHideFlags: 0
  m_CorrespondingSourceObject: {fileID: 0}
  m_PrefabInstance: {fileID: 0}
  m_PrefabAsset: {fileID: 0}
  m_GameObject: {fileID: 0}
  m_Enabled: 1
  m_EditorHideFlags: 0
  m_Script: {fileID: 12395, guid: 0000000000000000e000000000000000, type: 0}
  m_Name: Palette Settings
  m_EditorClassIdentifier: 
  cellSizing: 0
